<?xml version="1.0" encoding="UTF-8" standalone="no"?>
<!-- Created with Inkscape (http://www.inkscape.org/) -->

<svg
   xmlns:dc="http://purl.org/dc/elements/1.1/"
   xmlns:cc="http://creativecommons.org/ns#"
   xmlns:rdf="http://www.w3.org/1999/02/22-rdf-syntax-ns#"
   xmlns:svg="http://www.w3.org/2000/svg"
   xmlns="http://www.w3.org/2000/svg"
   xmlns:sodipodi="http://sodipodi.sourceforge.net/DTD/sodipodi-0.dtd"
   xmlns:inkscape="http://www.inkscape.org/namespaces/inkscape"
   width="120mm"
   height="80mm"
   viewBox="0 0 120 80"
   version="1.1"
   id="svg8"
   inkscape:version="0.92.1 r15371"
   sodipodi:docname="juanita-grid.svg">
  <defs
     id="defs2" />
  <sodipodi:namedview
     id="base"
     pagecolor="#ffffff"
     bordercolor="#666666"
     borderopacity="1.0"
     inkscape:pageopacity="0.0"
     inkscape:pageshadow="2"
     inkscape:zoom="2.51"
     inkscape:cx="218.75573"
     inkscape:cy="140.41958"
     inkscape:document-units="mm"
     inkscape:current-layer="layer1"
     showgrid="true"
     inkscape:window-width="2400"
     inkscape:window-height="1421"
     inkscape:window-x="2391"
     inkscape:window-y="-9"
     inkscape:window-maximized="1">
    <inkscape:grid
       type="xygrid"
       id="grid4487"
       spacingy="20"
       spacingx="20"
       units="mm"
       originx="0"
       originy="0" />
  </sodipodi:namedview>
  <metadata
     id="metadata5">
    <rdf:RDF>
      <cc:Work
         rdf:about="">
        <dc:format>image/svg+xml</dc:format>
        <dc:type
           rdf:resource="http://purl.org/dc/dcmitype/StillImage" />
        <dc:title></dc:title>
      </cc:Work>
    </rdf:RDF>
  </metadata>
  <g
     inkscape:label="Layer 1"
     inkscape:groupmode="layer"
     id="layer1"
     transform="translate(0,-217)">
    <rect
       style="opacity:1;fill:#88aa00;stroke:none;stroke-width:0.70944178;stroke-miterlimit:4;stroke-dasharray:none;stroke-opacity:1"
       id="recta0"
       width="20"
       height="20"
       x="2.5943692e-013"
       y="217"
       inkscape:label="#rect4485" />
    <rect
       style="opacity:1;fill:#668000;stroke:none;stroke-width:0.70944178;stroke-miterlimit:4;stroke-dasharray:none;stroke-opacity:1"
       id="recta1"
       width="20"
       height="20"
       x="20"
       y="217"
       inkscape:label="#rect4485-5" />
    <rect
       style="opacity:1;fill:#aad400;stroke:none;stroke-width:0.70944178;stroke-miterlimit:4;stroke-dasharray:none;stroke-opacity:1"
       id="recta2"
       width="20"
       height="20"
       x="40"
       y="217"
       inkscape:label="#rect4485-4" />
    <rect
       style="opacity:1;fill:#88aa00;stroke:none;stroke-width:0.70944178;stroke-miterlimit:4;stroke-dasharray:none;stroke-opacity:1"
       id="recta3"
       width="20"
       height="20"
       x="60"
       y="217"
       inkscape:label="#rect4485-4-7" />
    <rect
       style="opacity:1;fill:#ddff55;stroke:none;stroke-width:0.70944178;stroke-miterlimit:4;stroke-dasharray:none;stroke-opacity:1"
       id="recta4"
       width="20"
       height="20"
       x="80"
       y="217"
       inkscape:label="#rect4485-4-0" />
    <rect
       style="opacity:1;fill:#ccff00;stroke:none;stroke-width:0.70944178;stroke-miterlimit:4;stroke-dasharray:none;stroke-opacity:1"
       id="recta5"
       width="20"
       height="20"
       x="100"
       y="217"
       inkscape:label="#rect4485-4-5" />
    <rect
       style="opacity:1;fill:#aad400;stroke:none;stroke-width:0.70944178;stroke-miterlimit:4;stroke-dasharray:none;stroke-opacity:1"
       id="rectb0"
       width="20"
       height="20"
       x="-1.9291235e-012"
       y="237"
       inkscape:label="#rect4485-4-57" />
    <rect
       style="opacity:1;fill:#d4ff2a;stroke:none;stroke-width:0.70944178;stroke-miterlimit:4;stroke-dasharray:none;stroke-opacity:1"
       id="rectb1"
       width="20"
       height="20"
       x="20"
       y="237"
       inkscape:label="#rect4485-4-4" />
    <rect
       style="opacity:1;fill:#ccff00;stroke:none;stroke-width:0.70944178;stroke-miterlimit:4;stroke-dasharray:none;stroke-opacity:1"
       id="rectb2"
       width="20"
       height="20"
       x="40"
       y="237"
       inkscape:label="#rect4485-4-01" />
    <rect
       style="opacity:1;fill:#aad400;stroke:none;stroke-width:0.70944178;stroke-miterlimit:4;stroke-dasharray:none;stroke-opacity:1"
       id="rectb3"
       width="20"
       height="20"
       x="60"
       y="237"
       inkscape:label="#rect4485-4-59" />
    <rect
       style="opacity:1;fill:#668000;stroke:none;stroke-width:0.70944178;stroke-miterlimit:4;stroke-dasharray:none;stroke-opacity:1"
       id="rectb4"
       width="20"
       height="20"
       x="80"
       y="237"
       inkscape:label="#rect4485-4-56" />
    <rect
       style="opacity:1;fill:#aad400;stroke:none;stroke-width:0.70944178;stroke-miterlimit:4;stroke-dasharray:none;stroke-opacity:1"
       id="rectb5"
       width="20"
       height="20"
       x="100"
       y="237"
       inkscape:label="#rect4485-4-9" />
    <rect
       style="opacity:1;fill:#668000;stroke:none;stroke-width:0.70944178;stroke-miterlimit:4;stroke-dasharray:none;stroke-opacity:1"
       id="rectc0"
       width="20"
       height="20"
       x="1.7763568e-014"
       y="257"
       inkscape:label="#rect4485-4-97" />
    <rect
       style="opacity:1;fill:#88aa00;stroke:none;stroke-width:0.70944178;stroke-miterlimit:4;stroke-dasharray:none;stroke-opacity:1"
       id="rectc1"
       width="20"
       height="20"
       x="20"
       y="257"
       inkscape:label="#rect4485-4-91" />
    <rect
       style="opacity:1;fill:#aad400;stroke:none;stroke-width:0.70944178;stroke-miterlimit:4;stroke-dasharray:none;stroke-opacity:1"
       id="rectc2"
       width="20"
       height="20"
       x="40"
       y="257"
       inkscape:label="#rect4485-4-8" />
    <rect
       style="opacity:1;fill:#88aa00;stroke:none;stroke-width:0.70944178;stroke-miterlimit:4;stroke-dasharray:none;stroke-opacity:1"
       id="rectc3"
       width="20"
       height="20"
       x="60"
       y="257"
       inkscape:label="#rect4485-4-00" />
    <rect
       style="opacity:1;fill:#aad400;stroke:none;stroke-width:0.70944178;stroke-miterlimit:4;stroke-dasharray:none;stroke-opacity:1"
       id="rectc4"
       width="20"
       height="20"
       x="80"
       y="257"
       inkscape:label="#rect4485-4-71" />
    <rect
       style="opacity:1;fill:#ddff55;stroke:none;stroke-width:0.70944178;stroke-miterlimit:4;stroke-dasharray:none;stroke-opacity:1"
       id="rectc5"
       width="20"
       height="20"
       x="100"
       y="257"
       inkscape:label="#rect4485-4-80" />
    <rect
       style="opacity:1;fill:#aad400;stroke:none;stroke-width:0.70944178;stroke-miterlimit:4;stroke-dasharray:none;stroke-opacity:1"
       id="rectd0"
       width="20"
       height="20"
       x="1.5247062e-014"
       y="277"
       inkscape:label="#rect4485-4-83" />
    <rect
       style="opacity:1;fill:#d4ff2a;stroke:none;stroke-width:0.70944178;stroke-miterlimit:4;stroke-dasharray:none;stroke-opacity:1"
       id="rectd1"
       width="20"
       height="20"
       x="20"
       y="277"
       inkscape:label="#rect4485-4-84" />
    <rect
       style="opacity:1;fill:#ddff55;stroke:none;stroke-width:0.70944178;stroke-miterlimit:4;stroke-dasharray:none;stroke-opacity:1"
       id="rectd2"
       width="20"
       height="20"
       x="40"
       y="277"
       inkscape:label="#rect4485-4-2" />
    <rect
       style="opacity:1;fill:#ccff00;stroke:none;stroke-width:0.70944178;stroke-miterlimit:4;stroke-dasharray:none;stroke-opacity:1"
       id="rectd3"
       width="20"
       height="20"
       x="60"
       y="277"
       inkscape:label="#rect4485-4-1" />
    <rect
       style="opacity:1;fill:#668000;stroke:none;stroke-width:0.70944178;stroke-miterlimit:4;stroke-dasharray:none;stroke-opacity:1"
       id="rectd4"
       width="20"
       height="20"
       x="80"
       y="277"
       inkscape:label="#rect4485-4-53" />
    <rect
       style="opacity:1;fill:#d4ff2a;stroke:none;stroke-width:0.70944178;stroke-miterlimit:4;stroke-dasharray:none;stroke-opacity:1"
       id="rectd5"
       width="20"
       height="20"
       x="100"
       y="277"
       inkscape:label="#rect4485-4-47" />
  </g>
</svg>
